/s/chopin/b/grad/chenwx/sched/TD/bin/minisat2.2-hyper /home/chenwx/workspace/inst/sat14/app-pre/aaai10-ipc5.pre.cnf -hyper-path=/s/chopin/m/proj/sched/chenwx/max-fixed/aaai10-ipc5.backbone -dimacs=/s/chopin/m/proj/sched/chenwx/inst/sat14/app/pre-simp-cnf/aaai10-ipc5.cnf
/s/chopin/b/grad/chenwx/sched/TD/bin/minisat2.2-hyper /home/chenwx/workspace/inst/sat14/app-pre/AProVE09-06.pre.cnf -hyper-path=/s/chopin/m/proj/sched/chenwx/max-fixed/AProVE09-06.backbone -dimacs=/s/chopin/m/proj/sched/chenwx/inst/sat14/app/pre-simp-cnf/AProVE09-06.cnf
/s/chopin/b/grad/chenwx/sched/TD/bin/minisat2.2-hyper /home/chenwx/workspace/inst/sat14/app-pre/atco_enc3_opt1_03_53.pre.cnf -hyper-path=/s/chopin/m/proj/sched/chenwx/max-fixed/atco_enc3_opt1_03_53.backbone -dimacs=/s/chopin/m/proj/sched/chenwx/inst/sat14/app/pre-simp-cnf/atco_enc3_opt1_03_53.cnf
/s/chopin/b/grad/chenwx/sched/TD/bin/minisat2.2-hyper /home/chenwx/workspace/inst/sat14/app-pre/atco_enc3_opt1_04_50.pre.cnf -hyper-path=/s/chopin/m/proj/sched/chenwx/max-fixed/atco_enc3_opt1_04_50.backbone -dimacs=/s/chopin/m/proj/sched/chenwx/inst/sat14/app/pre-simp-cnf/atco_enc3_opt1_04_50.cnf
/s/chopin/b/grad/chenwx/sched/TD/bin/minisat2.2-hyper /home/chenwx/workspace/inst/sat14/app-pre/atco_enc3_opt1_13_48.pre.cnf -hyper-path=/s/chopin/m/proj/sched/chenwx/max-fixed/atco_enc3_opt1_13_48.backbone -dimacs=/s/chopin/m/proj/sched/chenwx/inst/sat14/app/pre-simp-cnf/atco_enc3_opt1_13_48.cnf
/s/chopin/b/grad/chenwx/sched/TD/bin/minisat2.2-hyper /home/chenwx/workspace/inst/sat14/app-pre/atco_enc3_opt2_05_21.pre.cnf -hyper-path=/s/chopin/m/proj/sched/chenwx/max-fixed/atco_enc3_opt2_05_21.backbone -dimacs=/s/chopin/m/proj/sched/chenwx/inst/sat14/app/pre-simp-cnf/atco_enc3_opt2_05_21.cnf
/s/chopin/b/grad/chenwx/sched/TD/bin/minisat2.2-hyper /home/chenwx/workspace/inst/sat14/app-pre/atco_enc3_opt2_18_44.pre.cnf -hyper-path=/s/chopin/m/proj/sched/chenwx/max-fixed/atco_enc3_opt2_18_44.backbone -dimacs=/s/chopin/m/proj/sched/chenwx/inst/sat14/app/pre-simp-cnf/atco_enc3_opt2_18_44.cnf
/s/chopin/b/grad/chenwx/sched/TD/bin/minisat2.2-hyper /home/chenwx/workspace/inst/sat14/crafted/SAT/pre-cnf/LABS_n044_goal003.pre.cnf -hyper-path=/s/chopin/m/proj/sched/chenwx/max-fixed/LABS_n044_goal003.backbone -dimacs=/s/chopin/m/proj/sched/chenwx/inst/sat14/crafted/SAT/pre-simp-cnf/LABS_n044_goal003.cnf
/s/chopin/b/grad/chenwx/sched/TD/bin/minisat2.2-hyper /home/chenwx/workspace/inst/sat14/crafted/SAT/pre-cnf/LABS_n045_goal003.pre.cnf -hyper-path=/s/chopin/m/proj/sched/chenwx/max-fixed/LABS_n045_goal003.backbone -dimacs=/s/chopin/m/proj/sched/chenwx/inst/sat14/crafted/SAT/pre-simp-cnf/LABS_n045_goal003.cnf
/s/chopin/b/grad/chenwx/sched/TD/bin/minisat2.2-hyper /home/chenwx/workspace/inst/sat14/crafted/SAT/pre-cnf/LABS_n051_goal004.pre.cnf -hyper-path=/s/chopin/m/proj/sched/chenwx/max-fixed/LABS_n051_goal004.backbone -dimacs=/s/chopin/m/proj/sched/chenwx/inst/sat14/crafted/SAT/pre-simp-cnf/LABS_n051_goal004.cnf
/s/chopin/b/grad/chenwx/sched/TD/bin/minisat2.2-hyper /home/chenwx/workspace/inst/sat14/crafted/SAT/pre-cnf/LABS_n052_goal004.pre.cnf -hyper-path=/s/chopin/m/proj/sched/chenwx/max-fixed/LABS_n052_goal004.backbone -dimacs=/s/chopin/m/proj/sched/chenwx/inst/sat14/crafted/SAT/pre-simp-cnf/LABS_n052_goal004.cnf
/s/chopin/b/grad/chenwx/sched/TD/bin/minisat2.2-hyper /home/chenwx/workspace/inst/sat14/crafted/SAT/pre-cnf/LABS_n066_goal005.pre.cnf -hyper-path=/s/chopin/m/proj/sched/chenwx/max-fixed/LABS_n066_goal005.backbone -dimacs=/s/chopin/m/proj/sched/chenwx/inst/sat14/crafted/SAT/pre-simp-cnf/LABS_n066_goal005.cnf
/s/chopin/b/grad/chenwx/sched/TD/bin/minisat2.2-hyper /home/chenwx/workspace/inst/sat14/crafted/SAT/pre-cnf/LABS_n078_goal006.pre.cnf -hyper-path=/s/chopin/m/proj/sched/chenwx/max-fixed/LABS_n078_goal006.backbone -dimacs=/s/chopin/m/proj/sched/chenwx/inst/sat14/crafted/SAT/pre-simp-cnf/LABS_n078_goal006.cnf
/s/chopin/b/grad/chenwx/sched/TD/bin/minisat2.2-hyper /home/chenwx/workspace/inst/sat14/crafted/SAT/pre-cnf/LABS_n081_goal007.pre.cnf -hyper-path=/s/chopin/m/proj/sched/chenwx/max-fixed/LABS_n081_goal007.backbone -dimacs=/s/chopin/m/proj/sched/chenwx/inst/sat14/crafted/SAT/pre-simp-cnf/LABS_n081_goal007.cnf
/s/chopin/b/grad/chenwx/sched/TD/bin/minisat2.2-hyper /home/chenwx/workspace/inst/sat14/crafted/SAT/pre-cnf/LABS_n082_goal007.pre.cnf -hyper-path=/s/chopin/m/proj/sched/chenwx/max-fixed/LABS_n082_goal007.backbone -dimacs=/s/chopin/m/proj/sched/chenwx/inst/sat14/crafted/SAT/pre-simp-cnf/LABS_n082_goal007.cnf
/s/chopin/b/grad/chenwx/sched/TD/bin/minisat2.2-hyper /home/chenwx/workspace/inst/sat14/crafted/SAT/pre-cnf/LABS_n088_goal008.pre.cnf -hyper-path=/s/chopin/m/proj/sched/chenwx/max-fixed/LABS_n088_goal008.backbone -dimacs=/s/chopin/m/proj/sched/chenwx/inst/sat14/crafted/SAT/pre-simp-cnf/LABS_n088_goal008.cnf
/s/chopin/b/grad/chenwx/sched/TD/bin/minisat2.2-hyper /home/chenwx/workspace/inst/sat14/crafted/SAT/pre-cnf/SAT_instance_N=49.pre.cnf -hyper-path=/s/chopin/m/proj/sched/chenwx/max-fixed/SAT_instance_N=49.backbone -dimacs=/s/chopin/m/proj/sched/chenwx/inst/sat14/crafted/SAT/pre-simp-cnf/SAT_instance_N=49.cnf
/s/chopin/b/grad/chenwx/sched/TD/bin/minisat2.2-hyper /home/chenwx/workspace/inst/sat14/crafted/SAT/pre-cnf/SAT_instance_N=55.pre.cnf -hyper-path=/s/chopin/m/proj/sched/chenwx/max-fixed/SAT_instance_N=55.backbone -dimacs=/s/chopin/m/proj/sched/chenwx/inst/sat14/crafted/SAT/pre-simp-cnf/SAT_instance_N=55.cnf
/s/chopin/b/grad/chenwx/sched/TD/bin/minisat2.2-hyper /home/chenwx/workspace/inst/sat14/crafted/SAT/pre-cnf/SAT_instance_N=63.pre.cnf -hyper-path=/s/chopin/m/proj/sched/chenwx/max-fixed/SAT_instance_N=63.backbone -dimacs=/s/chopin/m/proj/sched/chenwx/inst/sat14/crafted/SAT/pre-simp-cnf/SAT_instance_N=63.cnf
/s/chopin/b/grad/chenwx/sched/TD/bin/minisat2.2-hyper /home/chenwx/workspace/inst/sat14/crafted/SAT/pre-cnf/SAT_instance_N=69.pre.cnf -hyper-path=/s/chopin/m/proj/sched/chenwx/max-fixed/SAT_instance_N=69.backbone -dimacs=/s/chopin/m/proj/sched/chenwx/inst/sat14/crafted/SAT/pre-simp-cnf/SAT_instance_N=69.cnf
/s/chopin/b/grad/chenwx/sched/TD/bin/minisat2.2-hyper /home/chenwx/workspace/inst/sat14/crafted/SAT/pre-cnf/SAT_instance_N=72.pre.cnf -hyper-path=/s/chopin/m/proj/sched/chenwx/max-fixed/SAT_instance_N=72.backbone -dimacs=/s/chopin/m/proj/sched/chenwx/inst/sat14/crafted/SAT/pre-simp-cnf/SAT_instance_N=72.cnf
/s/chopin/b/grad/chenwx/sched/TD/bin/minisat2.2-hyper /home/chenwx/workspace/inst/sat14/crafted/SAT/pre-cnf/SAT_instance_N=75.pre.cnf -hyper-path=/s/chopin/m/proj/sched/chenwx/max-fixed/SAT_instance_N=75.backbone -dimacs=/s/chopin/m/proj/sched/chenwx/inst/sat14/crafted/SAT/pre-simp-cnf/SAT_instance_N=75.cnf
/s/chopin/b/grad/chenwx/sched/TD/bin/minisat2.2-hyper /home/chenwx/workspace/inst/sat14/crafted/SAT/pre-cnf/SAT_instance_N=77.pre.cnf -hyper-path=/s/chopin/m/proj/sched/chenwx/max-fixed/SAT_instance_N=77.backbone -dimacs=/s/chopin/m/proj/sched/chenwx/inst/sat14/crafted/SAT/pre-simp-cnf/SAT_instance_N=77.cnf
/s/chopin/b/grad/chenwx/sched/TD/bin/minisat2.2-hyper /home/chenwx/workspace/inst/sat14/crafted/SAT/pre-cnf/SAT_instance_N=85.pre.cnf -hyper-path=/s/chopin/m/proj/sched/chenwx/max-fixed/SAT_instance_N=85.backbone -dimacs=/s/chopin/m/proj/sched/chenwx/inst/sat14/crafted/SAT/pre-simp-cnf/SAT_instance_N=85.cnf
/s/chopin/b/grad/chenwx/sched/TD/bin/minisat2.2-hyper /home/chenwx/workspace/inst/sat14/crafted/SAT/pre-cnf/SAT_instance_N=93.pre.cnf -hyper-path=/s/chopin/m/proj/sched/chenwx/max-fixed/SAT_instance_N=93.backbone -dimacs=/s/chopin/m/proj/sched/chenwx/inst/sat14/crafted/SAT/pre-simp-cnf/SAT_instance_N=93.cnf
/s/chopin/b/grad/chenwx/sched/TD/bin/minisat2.2-hyper /home/chenwx/workspace/inst/sat14/crafted/SAT/pre-cnf/SAT_instance_N=99.pre.cnf -hyper-path=/s/chopin/m/proj/sched/chenwx/max-fixed/SAT_instance_N=99.backbone -dimacs=/s/chopin/m/proj/sched/chenwx/inst/sat14/crafted/SAT/pre-simp-cnf/SAT_instance_N=99.cnf
/s/chopin/b/grad/chenwx/sched/TD/bin/minisat2.2-hyper /home/chenwx/workspace/inst/sat14/crafted/SAT/pre-cnf/SAT_instance_N=111.pre.cnf -hyper-path=/s/chopin/m/proj/sched/chenwx/max-fixed/SAT_instance_N=111.backbone -dimacs=/s/chopin/m/proj/sched/chenwx/inst/sat14/crafted/SAT/pre-simp-cnf/SAT_instance_N=111.cnf
